<svg width="60" height="60" viewBox="0 0 60 60" fill="none" xmlns="http://www.w3.org/2000/svg">
<path d="M60 30C60 35.9334 58.2405 41.7336 54.9441 46.6671C51.6476 51.6006 46.9623 55.4457 41.4805 57.7164C35.9987 59.987 29.9667 60.5811 24.1473 59.4235C18.3279 58.266 12.9824 55.4088 8.78681 51.2132C4.59123 47.0176 1.73401 41.6721 0.576455 35.8527C-0.581101 30.0333 0.0129986 24.0013 2.28363 18.5195C4.55426 13.0377 8.39943 8.35235 13.3329 5.05591C18.2664 1.75947 24.0666 0 30 0C37.9539 0.0086027 45.5795 3.17207 51.2037 8.7963C56.8279 14.4205 59.9914 22.0461 60 30ZM35 30C35 28.6739 34.4732 27.4021 33.5355 26.4645C32.5979 25.5268 31.3261 25 30 25H25V30H30V47.5H35V30ZM30 12.5C29.2583 12.5 28.5333 12.7199 27.9166 13.132C27.2999 13.544 26.8193 14.1297 26.5355 14.8149C26.2516 15.5002 26.1774 16.2542 26.3221 16.9816C26.4668 17.709 26.8239 18.3772 27.3484 18.9016C27.8728 19.4261 28.541 19.7832 29.2684 19.9279C29.9958 20.0726 30.7498 19.9984 31.4351 19.7145C32.1203 19.4307 32.706 18.9501 33.118 18.3334C33.5301 17.7167 33.75 16.9917 33.75 16.25C33.75 15.2554 33.3549 14.3016 32.6517 13.5983C31.9484 12.8951 30.9946 12.5 30 12.5Z" fill="white"/>
</svg>
