<svg width="526" height="511" viewBox="0 0 526 511" fill="none" xmlns="http://www.w3.org/2000/svg">
<path opacity="0.2" fill-rule="evenodd" clip-rule="evenodd" d="M0 57C0 25.5198 24.9825 0 55.8 0H204.6C235.417 0 260.4 25.5198 260.4 57V209C260.4 240.48 235.417 266 204.6 266H55.8C24.9825 266 0 240.48 0 209V57ZM55.8 38C45.5275 38 37.2 46.5066 37.2 57V209C37.2 219.493 45.5275 228 55.8 228H204.6C214.872 228 223.2 219.493 223.2 209V57C223.2 46.5066 214.872 38 204.6 38H55.8ZM297.6 57C297.6 25.5198 322.583 0 353.4 0H502.2C533.018 0 558 25.5198 558 57V209C558 240.48 533.018 266 502.2 266H353.4C322.583 266 297.6 240.48 297.6 209V57ZM353.4 38C343.128 38 334.8 46.5066 334.8 57V209C334.8 219.493 343.128 228 353.4 228H502.2C512.472 228 520.8 219.493 520.8 209V57C520.8 46.5066 512.472 38 502.2 38H353.4ZM148.8 152H111.6V114H148.8V152ZM446.4 152H409.2V114H446.4V152ZM0 361C0 329.52 24.9825 304 55.8 304H204.6C235.417 304 260.4 329.52 260.4 361V513C260.4 544.48 235.417 570 204.6 570H55.8C24.9825 570 0 544.48 0 513V361ZM55.8 342C45.5275 342 37.2 350.507 37.2 361V513C37.2 523.493 45.5275 532 55.8 532H204.6C214.872 532 223.2 523.493 223.2 513V361C223.2 350.507 214.872 342 204.6 342H55.8ZM297.6 304H446.4V342H334.8V456H297.6V304ZM558 342H520.8V304H558V342ZM148.8 456H111.6V418H148.8V456ZM520.8 456H409.2V418H558V570H520.8V456ZM297.6 532H446.4V570H297.6V532Z" fill="#EBEEF3"/>
</svg>
